%YAML 1.1
%TAG !u! tag:unity3d.com,2011:
--- !u!1045 &1
EditorBuildSettings:
  m_ObjectHideFlags: 0
  serializedVersion: 2
  m_Scenes:
  - enabled: 0
    path: Assets/Scenes/Heart 100 MainMenu.unity
    guid: ee51308c5a08b0a4294adbc7a775df9e
  - enabled: 1
    path: Assets/Scenes/Heart 100 Brewing.unity
    guid: e4f2cc2968ae01545bd78d9617d9eb89
  - enabled: 1
    path: Assets/Scenes/duyen/duyen_5b.unity
    guid: 737ba50ab46a50f4a8c191f1f4afcb8b
  m_configObjects: {}
