%YAML 1.1
%TAG !u! tag:unity3d.com,2011:
--- !u!29 &1
OcclusionCullingSettings:
  m_ObjectHideFlags: 0
  serializedVersion: 2
  m_OcclusionBakeSettings:
    smallestOccluder: 5
    smallestHole: 0.25
    backfaceThreshold: 100
  m_SceneGUID: 00000000000000000000000000000000
  m_OcclusionCullingData: {fileID: 0}
--- !u!104 &2
RenderSettings:
  m_ObjectHideFlags: 0
  serializedVersion: 9
  m_Fog: 0
  m_FogColor: {r: 0.5, g: 0.5, b: 0.5, a: 1}
  m_FogMode: 3
  m_FogDensity: 0.01
  m_LinearFogStart: 0
  m_LinearFogEnd: 300
  m_AmbientSkyColor: {r: 0.212, g: 0.227, b: 0.259, a: 1}
  m_AmbientEquatorColor: {r: 0.114, g: 0.125, b: 0.133, a: 1}
  m_AmbientGroundColor: {r: 0.047, g: 0.043, b: 0.035, a: 1}
  m_AmbientIntensity: 1
  m_AmbientMode: 0
  m_SubtractiveShadowColor: {r: 0.42, g: 0.478, b: 0.627, a: 1}
  m_SkyboxMaterial: {fileID: 10304, guid: 0000000000000000f000000000000000, type: 0}
  m_HaloStrength: 0.5
  m_FlareStrength: 1
  m_FlareFadeSpeed: 3
  m_HaloTexture: {fileID: 0}
  m_SpotCookie: {fileID: 10001, guid: 0000000000000000e000000000000000, type: 0}
  m_DefaultReflectionMode: 0
  m_DefaultReflectionResolution: 128
  m_ReflectionBounces: 1
  m_ReflectionIntensity: 1
  m_CustomReflection: {fileID: 0}
  m_Sun: {fileID: 0}
  m_IndirectSpecularColor: {r: 0.44657844, g: 0.49641222, b: 0.57481694, a: 1}
  m_UseRadianceAmbientProbe: 0
--- !u!157 &3
LightmapSettings:
  m_ObjectHideFlags: 0
  serializedVersion: 11
  m_GIWorkflowMode: 0
  m_GISettings:
    serializedVersion: 2
    m_BounceScale: 1
    m_IndirectOutputScale: 1
    m_AlbedoBoost: 1
    m_EnvironmentLightingMode: 0
    m_EnableBakedLightmaps: 1
    m_EnableRealtimeLightmaps: 1
  m_LightmapEditorSettings:
    serializedVersion: 10
    m_Resolution: 2
    m_BakeResolution: 40
    m_AtlasSize: 1024
    m_AO: 0
    m_AOMaxDistance: 1
    m_CompAOExponent: 1
    m_CompAOExponentDirect: 0
    m_Padding: 2
    m_LightmapParameters: {fileID: 0}
    m_LightmapsBakeMode: 1
    m_TextureCompression: 1
    m_FinalGather: 0
    m_FinalGatherFiltering: 1
    m_FinalGatherRayCount: 256
    m_ReflectionCompression: 2
    m_MixedBakeMode: 2
    m_BakeBackend: 1
    m_PVRSampling: 1
    m_PVRDirectSampleCount: 32
    m_PVRSampleCount: 500
    m_PVRBounces: 2
    m_PVRFilterTypeDirect: 0
    m_PVRFilterTypeIndirect: 0
    m_PVRFilterTypeAO: 0
    m_PVRFilteringMode: 1
    m_PVRCulling: 1
    m_PVRFilteringGaussRadiusDirect: 1
    m_PVRFilteringGaussRadiusIndirect: 5
    m_PVRFilteringGaussRadiusAO: 2
    m_PVRFilteringAtrousPositionSigmaDirect: 0.5
    m_PVRFilteringAtrousPositionSigmaIndirect: 2
    m_PVRFilteringAtrousPositionSigmaAO: 1
    m_ShowResolutionOverlay: 1
  m_LightingDataAsset: {fileID: 0}
  m_UseShadowmask: 1
--- !u!196 &4
NavMeshSettings:
  serializedVersion: 2
  m_ObjectHideFlags: 0
  m_BuildSettings:
    serializedVersion: 2
    agentTypeID: 0
    agentRadius: 0.5
    agentHeight: 2
    agentSlope: 45
    agentClimb: 0.4
    ledgeDropHeight: 0
    maxJumpAcrossDistance: 0
    minRegionArea: 2
    manualCellSize: 0
    cellSize: 0.16666667
    manualTileSize: 0
    tileSize: 256
    accuratePlacement: 0
    debug:
      m_Flags: 0
  m_NavMeshData: {fileID: 0}
--- !u!1 &272544392
GameObject:
  m_ObjectHideFlags: 0
  m_CorrespondingSourceObject: {fileID: 0}
  m_PrefabInstance: {fileID: 0}
  m_PrefabAsset: {fileID: 0}
  serializedVersion: 6
  m_Component:
  - component: {fileID: 272544394}
  - component: {fileID: 272544393}
  m_Layer: 0
  m_Name: Directional Light
  m_TagString: Untagged
  m_Icon: {fileID: 0}
  m_NavMeshLayer: 0
  m_StaticEditorFlags: 0
  m_IsActive: 1
--- !u!108 &272544393
Light:
  m_ObjectHideFlags: 0
  m_CorrespondingSourceObject: {fileID: 0}
  m_PrefabInstance: {fileID: 0}
  m_PrefabAsset: {fileID: 0}
  m_GameObject: {fileID: 272544392}
  m_Enabled: 1
  serializedVersion: 8
  m_Type: 1
  m_Color: {r: 1, g: 0.95686275, b: 0.8392157, a: 1}
  m_Intensity: 1
  m_Range: 10
  m_SpotAngle: 30
  m_CookieSize: 10
  m_Shadows:
    m_Type: 2
    m_Resolution: -1
    m_CustomResolution: -1
    m_Strength: 1
    m_Bias: 0.05
    m_NormalBias: 0.4
    m_NearPlane: 0.2
  m_Cookie: {fileID: 0}
  m_DrawHalo: 0
  m_Flare: {fileID: 0}
  m_RenderMode: 0
  m_CullingMask:
    serializedVersion: 2
    m_Bits: 4294967295
  m_Lightmapping: 4
  m_LightShadowCasterMode: 0
  m_AreaSize: {x: 1, y: 1}
  m_BounceIntensity: 1
  m_ColorTemperature: 6570
  m_UseColorTemperature: 0
  m_ShadowRadius: 0
  m_ShadowAngle: 0
--- !u!4 &272544394
Transform:
  m_ObjectHideFlags: 0
  m_CorrespondingSourceObject: {fileID: 0}
  m_PrefabInstance: {fileID: 0}
  m_PrefabAsset: {fileID: 0}
  m_GameObject: {fileID: 272544392}
  m_LocalRotation: {x: 0.40821788, y: -0.23456968, z: 0.10938163, w: 0.8754261}
  m_LocalPosition: {x: 0, y: 3, z: 0}
  m_LocalScale: {x: 1, y: 1, z: 1}
  m_Children: []
  m_Father: {fileID: 0}
  m_RootOrder: 5
  m_LocalEulerAnglesHint: {x: 50, y: -30, z: 0}
--- !u!1001 &398864275
PrefabInstance:
  m_ObjectHideFlags: 0
  serializedVersion: 2
  m_Modification:
    m_TransformParent: {fileID: 0}
    m_Modifications:
    - target: {fileID: 142980, guid: 5e7fbc8d4eb714b279eeeef2262c1e1a, type: 3}
      propertyPath: m_Name
      value: Flowchart
      objectReference: {fileID: 0}
    - target: {fileID: 467082, guid: 5e7fbc8d4eb714b279eeeef2262c1e1a, type: 3}
      propertyPath: m_LocalPosition.x
      value: 0
      objectReference: {fileID: 0}
    - target: {fileID: 467082, guid: 5e7fbc8d4eb714b279eeeef2262c1e1a, type: 3}
      propertyPath: m_LocalPosition.y
      value: 0
      objectReference: {fileID: 0}
    - target: {fileID: 467082, guid: 5e7fbc8d4eb714b279eeeef2262c1e1a, type: 3}
      propertyPath: m_LocalPosition.z
      value: 0
      objectReference: {fileID: 0}
    - target: {fileID: 467082, guid: 5e7fbc8d4eb714b279eeeef2262c1e1a, type: 3}
      propertyPath: m_LocalRotation.x
      value: 0
      objectReference: {fileID: 0}
    - target: {fileID: 467082, guid: 5e7fbc8d4eb714b279eeeef2262c1e1a, type: 3}
      propertyPath: m_LocalRotation.y
      value: 0
      objectReference: {fileID: 0}
    - target: {fileID: 467082, guid: 5e7fbc8d4eb714b279eeeef2262c1e1a, type: 3}
      propertyPath: m_LocalRotation.z
      value: 0
      objectReference: {fileID: 0}
    - target: {fileID: 467082, guid: 5e7fbc8d4eb714b279eeeef2262c1e1a, type: 3}
      propertyPath: m_LocalRotation.w
      value: 1
      objectReference: {fileID: 0}
    - target: {fileID: 467082, guid: 5e7fbc8d4eb714b279eeeef2262c1e1a, type: 3}
      propertyPath: m_RootOrder
      value: 3
      objectReference: {fileID: 0}
    - target: {fileID: 467082, guid: 5e7fbc8d4eb714b279eeeef2262c1e1a, type: 3}
      propertyPath: m_LocalEulerAnglesHint.x
      value: 0
      objectReference: {fileID: 0}
    - target: {fileID: 467082, guid: 5e7fbc8d4eb714b279eeeef2262c1e1a, type: 3}
      propertyPath: m_LocalEulerAnglesHint.y
      value: 0
      objectReference: {fileID: 0}
    - target: {fileID: 467082, guid: 5e7fbc8d4eb714b279eeeef2262c1e1a, type: 3}
      propertyPath: m_LocalEulerAnglesHint.z
      value: 0
      objectReference: {fileID: 0}
    - target: {fileID: 11430050, guid: 5e7fbc8d4eb714b279eeeef2262c1e1a, type: 3}
      propertyPath: selectedBlocks.Array.size
      value: 1
      objectReference: {fileID: 0}
    - target: {fileID: 11430050, guid: 5e7fbc8d4eb714b279eeeef2262c1e1a, type: 3}
      propertyPath: selectedCommands.Array.size
      value: 1
      objectReference: {fileID: 0}
    - target: {fileID: 11430050, guid: 5e7fbc8d4eb714b279eeeef2262c1e1a, type: 3}
      propertyPath: variables.Array.size
      value: 1
      objectReference: {fileID: 0}
    - target: {fileID: 11430050, guid: 5e7fbc8d4eb714b279eeeef2262c1e1a, type: 3}
      propertyPath: blockViewHeight
      value: 366
      objectReference: {fileID: 0}
    - target: {fileID: 11430050, guid: 5e7fbc8d4eb714b279eeeef2262c1e1a, type: 3}
      propertyPath: scrollPos.x
      value: 424
      objectReference: {fileID: 0}
    - target: {fileID: 11430050, guid: 5e7fbc8d4eb714b279eeeef2262c1e1a, type: 3}
      propertyPath: scrollPos.y
      value: 63
      objectReference: {fileID: 0}
    - target: {fileID: 11430050, guid: 5e7fbc8d4eb714b279eeeef2262c1e1a, type: 3}
      propertyPath: selectedBlocks.Array.data[0]
      value: 
      objectReference: {fileID: 398864277}
    - target: {fileID: 11430050, guid: 5e7fbc8d4eb714b279eeeef2262c1e1a, type: 3}
      propertyPath: selectedCommands.Array.data[0]
      value: 
      objectReference: {fileID: 398864280}
    - target: {fileID: 11430050, guid: 5e7fbc8d4eb714b279eeeef2262c1e1a, type: 3}
      propertyPath: variables.Array.data[0]
      value: 
      objectReference: {fileID: 398864281}
    - target: {fileID: 11433304, guid: 5e7fbc8d4eb714b279eeeef2262c1e1a, type: 3}
      propertyPath: commandList.Array.size
      value: 2
      objectReference: {fileID: 0}
    - target: {fileID: 11433304, guid: 5e7fbc8d4eb714b279eeeef2262c1e1a, type: 3}
      propertyPath: commandList.Array.data[0]
      value: 
      objectReference: {fileID: 398864280}
    - target: {fileID: 11433304, guid: 5e7fbc8d4eb714b279eeeef2262c1e1a, type: 3}
      propertyPath: commandList.Array.data[1]
      value: 
      objectReference: {fileID: 398864279}
    - target: {fileID: 11433304, guid: 5e7fbc8d4eb714b279eeeef2262c1e1a, type: 3}
      propertyPath: commandList.Array.data[2]
      value: 
      objectReference: {fileID: 0}
    - target: {fileID: 11433304, guid: 5e7fbc8d4eb714b279eeeef2262c1e1a, type: 3}
      propertyPath: commandList.Array.data[3]
      value: 
      objectReference: {fileID: 0}
    - target: {fileID: 11433304, guid: 5e7fbc8d4eb714b279eeeef2262c1e1a, type: 3}
      propertyPath: blockName
      value: Start
      objectReference: {fileID: 0}
    m_RemovedComponents: []
  m_SourcePrefab: {fileID: 100100000, guid: 5e7fbc8d4eb714b279eeeef2262c1e1a, type: 3}
--- !u!114 &398864276 stripped
MonoBehaviour:
  m_CorrespondingSourceObject: {fileID: 11430050, guid: 5e7fbc8d4eb714b279eeeef2262c1e1a,
    type: 3}
  m_PrefabInstance: {fileID: 398864275}
  m_PrefabAsset: {fileID: 0}
  m_GameObject: {fileID: 398864278}
  m_Enabled: 1
  m_EditorHideFlags: 0
  m_Script: {fileID: 11500000, guid: 7a334fe2ffb574b3583ff3b18b4792d3, type: 3}
  m_Name: 
  m_EditorClassIdentifier: 
--- !u!114 &398864277 stripped
MonoBehaviour:
  m_CorrespondingSourceObject: {fileID: 11433304, guid: 5e7fbc8d4eb714b279eeeef2262c1e1a,
    type: 3}
  m_PrefabInstance: {fileID: 398864275}
  m_PrefabAsset: {fileID: 0}
  m_GameObject: {fileID: 398864278}
  m_Enabled: 1
  m_EditorHideFlags: 0
  m_Script: {fileID: 11500000, guid: 3d3d73aef2cfc4f51abf34ac00241f60, type: 3}
  m_Name: 
  m_EditorClassIdentifier: 
--- !u!1 &398864278 stripped
GameObject:
  m_CorrespondingSourceObject: {fileID: 142980, guid: 5e7fbc8d4eb714b279eeeef2262c1e1a,
    type: 3}
  m_PrefabInstance: {fileID: 398864275}
  m_PrefabAsset: {fileID: 0}
--- !u!114 &398864279
MonoBehaviour:
  m_ObjectHideFlags: 2
  m_CorrespondingSourceObject: {fileID: 0}
  m_PrefabInstance: {fileID: 0}
  m_PrefabAsset: {fileID: 0}
  m_GameObject: {fileID: 398864278}
  m_Enabled: 1
  m_EditorHideFlags: 0
  m_Script: {fileID: 11500000, guid: 841589fc622bc494aa5405f416fa1301, type: 3}
  m_Name: 
  m_EditorClassIdentifier: 
  itemId: 2
  indentLevel: 0
  text: Body +
  description: 
  targetBlock: {fileID: 398864282}
  hideIfVisited: 0
  interactable:
    booleanRef: {fileID: 0}
    booleanVal: 1
  setMenuDialog: {fileID: 0}
  hideThisOption:
    booleanRef: {fileID: 0}
    booleanVal: 0
--- !u!114 &398864280
MonoBehaviour:
  m_ObjectHideFlags: 2
  m_CorrespondingSourceObject: {fileID: 0}
  m_PrefabInstance: {fileID: 0}
  m_PrefabAsset: {fileID: 0}
  m_GameObject: {fileID: 398864278}
  m_Enabled: 1
  m_EditorHideFlags: 0
  m_Script: {fileID: 11500000, guid: ec422cd568a9c4a31ad7c36d0572b9da, type: 3}
  m_Name: 
  m_EditorClassIdentifier: 
  itemId: 1
  indentLevel: 0
  storyText: adfkl;aklsdhfjkln JKLSDHFAJKLSDF
  description: 
  character: {fileID: 1918050801}
  portrait: {fileID: 0}
  voiceOverClip: {fileID: 0}
  showAlways: 1
  showCount: 1
  extendPrevious: 0
  fadeWhenDone: 1
  waitForClick: 1
  stopVoiceover: 1
  waitForVO: 0
  setSayDialog: {fileID: 0}
--- !u!114 &398864281
MonoBehaviour:
  m_ObjectHideFlags: 2
  m_CorrespondingSourceObject: {fileID: 0}
  m_PrefabInstance: {fileID: 0}
  m_PrefabAsset: {fileID: 0}
  m_GameObject: {fileID: 398864278}
  m_Enabled: 1
  m_EditorHideFlags: 0
  m_Script: {fileID: 11500000, guid: afb91b566ceda411bad1e9d3c3243ecc, type: 3}
  m_Name: 
  m_EditorClassIdentifier: 
  scope: 1
  key: Body
  value: 0
--- !u!114 &398864282
MonoBehaviour:
  m_ObjectHideFlags: 2
  m_CorrespondingSourceObject: {fileID: 0}
  m_PrefabInstance: {fileID: 0}
  m_PrefabAsset: {fileID: 0}
  m_GameObject: {fileID: 398864278}
  m_Enabled: 1
  m_EditorHideFlags: 0
  m_Script: {fileID: 11500000, guid: 3d3d73aef2cfc4f51abf34ac00241f60, type: 3}
  m_Name: 
  m_EditorClassIdentifier: 
  nodeRect:
    serializedVersion: 2
    x: -101
    y: 157
    width: 120
    height: 40
  tint: {r: 1, g: 1, b: 1, a: 1}
  useCustomTint: 0
  itemId: 5
  blockName: Body
  description: 
  eventHandler: {fileID: 0}
  commandList:
  - {fileID: 398864283}
--- !u!114 &398864283
MonoBehaviour:
  m_ObjectHideFlags: 2
  m_CorrespondingSourceObject: {fileID: 0}
  m_PrefabInstance: {fileID: 0}
  m_PrefabAsset: {fileID: 0}
  m_GameObject: {fileID: 398864278}
  m_Enabled: 1
  m_EditorHideFlags: 0
  m_Script: {fileID: 11500000, guid: fb77d0ce495044f6e9feb91b31798e8c, type: 3}
  m_Name: 
  m_EditorClassIdentifier: 
  itemId: 6
  indentLevel: 0
  variable: {fileID: 398864281}
  setOperator: 2
  booleanData:
    booleanRef: {fileID: 0}
    booleanVal: 0
  integerData:
    integerRef: {fileID: 0}
    integerVal: 5
  floatData:
    floatRef: {fileID: 0}
    floatVal: 0
  stringData:
    stringRef: {fileID: 0}
    stringVal: 
  animatorData:
    animatorRef: {fileID: 0}
    animatorVal: {fileID: 0}
  audioSourceData:
    audioSourceRef: {fileID: 0}
    audioSourceVal: {fileID: 0}
  colorData:
    colorRef: {fileID: 0}
    colorVal: {r: 0, g: 0, b: 0, a: 0}
  gameObjectData:
    gameObjectRef: {fileID: 0}
    gameObjectVal: {fileID: 0}
  materialData:
    materialRef: {fileID: 0}
    materialVal: {fileID: 0}
  objectData:
    objectRef: {fileID: 0}
    objectVal: {fileID: 0}
  rigidbody2DData:
    rigidbody2DRef: {fileID: 0}
    rigidbody2DVal: {fileID: 0}
  spriteData:
    spriteRef: {fileID: 0}
    spriteVal: {fileID: 0}
  textureData:
    textureRef: {fileID: 0}
    textureVal: {fileID: 0}
  transformData:
    transformRef: {fileID: 0}
    transformVal: {fileID: 0}
  vector2Data:
    vector2Ref: {fileID: 0}
    vector2Val: {x: 0, y: 0}
  vector3Data:
    vector3Ref: {fileID: 0}
    vector3Val: {x: 0, y: 0, z: 0}
--- !u!114 &398864284
MonoBehaviour:
  m_ObjectHideFlags: 0
  m_CorrespondingSourceObject: {fileID: 0}
  m_PrefabInstance: {fileID: 0}
  m_PrefabAsset: {fileID: 0}
  m_GameObject: {fileID: 398864278}
  m_Enabled: 1
  m_EditorHideFlags: 0
  m_Script: {fileID: 11500000, guid: 70c5622b8a80845c980954170295f292, type: 3}
  m_Name: 
  m_EditorClassIdentifier: 
  itemId: 8
  indentLevel: 0
  compareOperator: 5
  variable: {fileID: 398864281}
  booleanData:
    booleanRef: {fileID: 0}
    booleanVal: 0
  integerData:
    integerRef: {fileID: 0}
    integerVal: 5
  floatData:
    floatRef: {fileID: 0}
    floatVal: 0
  stringData:
    stringRef: {fileID: 0}
    stringVal: 
  animatorData:
    animatorRef: {fileID: 0}
    animatorVal: {fileID: 0}
  audioSourceData:
    audioSourceRef: {fileID: 0}
    audioSourceVal: {fileID: 0}
  colorData:
    colorRef: {fileID: 0}
    colorVal: {r: 0, g: 0, b: 0, a: 0}
  gameObjectData:
    gameObjectRef: {fileID: 0}
    gameObjectVal: {fileID: 0}
  materialData:
    materialRef: {fileID: 0}
    materialVal: {fileID: 0}
  objectData:
    objectRef: {fileID: 0}
    objectVal: {fileID: 0}
  rigidbody2DData:
    rigidbody2DRef: {fileID: 0}
    rigidbody2DVal: {fileID: 0}
  spriteData:
    spriteRef: {fileID: 0}
    spriteVal: {fileID: 0}
  textureData:
    textureRef: {fileID: 0}
    textureVal: {fileID: 0}
  transformData:
    transformRef: {fileID: 0}
    transformVal: {fileID: 0}
  vector2Data:
    vector2Ref: {fileID: 0}
    vector2Val: {x: 0, y: 0}
  vector3Data:
    vector3Ref: {fileID: 0}
    vector3Val: {x: 0, y: 0, z: 0}
--- !u!114 &398864285
MonoBehaviour:
  m_ObjectHideFlags: 2
  m_CorrespondingSourceObject: {fileID: 0}
  m_PrefabInstance: {fileID: 0}
  m_PrefabAsset: {fileID: 0}
  m_GameObject: {fileID: 398864278}
  m_Enabled: 1
  m_EditorHideFlags: 0
  m_Script: {fileID: 11500000, guid: 3d3d73aef2cfc4f51abf34ac00241f60, type: 3}
  m_Name: 
  m_EditorClassIdentifier: 
  nodeRect:
    serializedVersion: 2
    x: -101
    y: 251
    width: 120
    height: 40
  tint: {r: 1, g: 1, b: 1, a: 1}
  useCustomTint: 0
  itemId: 7
  blockName: If Body
  description: 
  eventHandler: {fileID: 0}
  commandList:
  - {fileID: 398864284}
--- !u!1 &707761981
GameObject:
  m_ObjectHideFlags: 0
  m_CorrespondingSourceObject: {fileID: 0}
  m_PrefabInstance: {fileID: 0}
  m_PrefabAsset: {fileID: 0}
  serializedVersion: 6
  m_Component:
  - component: {fileID: 707761985}
  - component: {fileID: 707761984}
  - component: {fileID: 707761983}
  - component: {fileID: 707761982}
  m_Layer: 0
  m_Name: EventSystem
  m_TagString: Untagged
  m_Icon: {fileID: 0}
  m_NavMeshLayer: 0
  m_StaticEditorFlags: 0
  m_IsActive: 1
--- !u!114 &707761982
MonoBehaviour:
  m_ObjectHideFlags: 0
  m_CorrespondingSourceObject: {fileID: 0}
  m_PrefabInstance: {fileID: 0}
  m_PrefabAsset: {fileID: 0}
  m_GameObject: {fileID: 707761981}
  m_Enabled: 1
  m_EditorHideFlags: 0
  m_Script: {fileID: 1997211142, guid: f5f67c52d1564df4a8936ccd202a3bd8, type: 3}
  m_Name: 
  m_EditorClassIdentifier: 
  m_ForceModuleActive: 0
--- !u!114 &707761983
MonoBehaviour:
  m_ObjectHideFlags: 0
  m_CorrespondingSourceObject: {fileID: 0}
  m_PrefabInstance: {fileID: 0}
  m_PrefabAsset: {fileID: 0}
  m_GameObject: {fileID: 707761981}
  m_Enabled: 1
  m_EditorHideFlags: 0
  m_Script: {fileID: 1077351063, guid: f5f67c52d1564df4a8936ccd202a3bd8, type: 3}
  m_Name: 
  m_EditorClassIdentifier: 
  m_HorizontalAxis: Horizontal
  m_VerticalAxis: Vertical
  m_SubmitButton: Submit
  m_CancelButton: Cancel
  m_InputActionsPerSecond: 10
  m_RepeatDelay: 0.5
  m_ForceModuleActive: 0
--- !u!114 &707761984
MonoBehaviour:
  m_ObjectHideFlags: 0
  m_CorrespondingSourceObject: {fileID: 0}
  m_PrefabInstance: {fileID: 0}
  m_PrefabAsset: {fileID: 0}
  m_GameObject: {fileID: 707761981}
  m_Enabled: 1
  m_EditorHideFlags: 0
  m_Script: {fileID: -619905303, guid: f5f67c52d1564df4a8936ccd202a3bd8, type: 3}
  m_Name: 
  m_EditorClassIdentifier: 
  m_FirstSelected: {fileID: 0}
  m_sendNavigationEvents: 1
  m_DragThreshold: 5
--- !u!4 &707761985
Transform:
  m_ObjectHideFlags: 0
  m_CorrespondingSourceObject: {fileID: 0}
  m_PrefabInstance: {fileID: 0}
  m_PrefabAsset: {fileID: 0}
  m_GameObject: {fileID: 707761981}
  m_LocalRotation: {x: 0, y: 0, z: 0, w: 1}
  m_LocalPosition: {x: 0, y: 0, z: 0}
  m_LocalScale: {x: 1, y: 1, z: 1}
  m_Children: []
  m_Father: {fileID: 0}
  m_RootOrder: 6
  m_LocalEulerAnglesHint: {x: 0, y: 0, z: 0}
--- !u!1001 &829140177
PrefabInstance:
  m_ObjectHideFlags: 0
  serializedVersion: 2
  m_Modification:
    m_TransformParent: {fileID: 0}
    m_Modifications:
    - target: {fileID: 188902, guid: 8a005a9e0713f4cc1b5ad29fb07657d3, type: 3}
      propertyPath: m_Name
      value: SayDialog
      objectReference: {fileID: 0}
    - target: {fileID: 22488902, guid: 8a005a9e0713f4cc1b5ad29fb07657d3, type: 3}
      propertyPath: m_LocalPosition.x
      value: 0
      objectReference: {fileID: 0}
    - target: {fileID: 22488902, guid: 8a005a9e0713f4cc1b5ad29fb07657d3, type: 3}
      propertyPath: m_LocalPosition.y
      value: 0
      objectReference: {fileID: 0}
    - target: {fileID: 22488902, guid: 8a005a9e0713f4cc1b5ad29fb07657d3, type: 3}
      propertyPath: m_LocalPosition.z
      value: 0
      objectReference: {fileID: 0}
    - target: {fileID: 22488902, guid: 8a005a9e0713f4cc1b5ad29fb07657d3, type: 3}
      propertyPath: m_LocalRotation.x
      value: 0
      objectReference: {fileID: 0}
    - target: {fileID: 22488902, guid: 8a005a9e0713f4cc1b5ad29fb07657d3, type: 3}
      propertyPath: m_LocalRotation.y
      value: 0
      objectReference: {fileID: 0}
    - target: {fileID: 22488902, guid: 8a005a9e0713f4cc1b5ad29fb07657d3, type: 3}
      propertyPath: m_LocalRotation.z
      value: 0
      objectReference: {fileID: 0}
    - target: {fileID: 22488902, guid: 8a005a9e0713f4cc1b5ad29fb07657d3, type: 3}
      propertyPath: m_LocalRotation.w
      value: 1
      objectReference: {fileID: 0}
    - target: {fileID: 22488902, guid: 8a005a9e0713f4cc1b5ad29fb07657d3, type: 3}
      propertyPath: m_RootOrder
      value: 1
      objectReference: {fileID: 0}
    - target: {fileID: 22488902, guid: 8a005a9e0713f4cc1b5ad29fb07657d3, type: 3}
      propertyPath: m_LocalEulerAnglesHint.x
      value: 0
      objectReference: {fileID: 0}
    - target: {fileID: 22488902, guid: 8a005a9e0713f4cc1b5ad29fb07657d3, type: 3}
      propertyPath: m_LocalEulerAnglesHint.y
      value: 0
      objectReference: {fileID: 0}
    - target: {fileID: 22488902, guid: 8a005a9e0713f4cc1b5ad29fb07657d3, type: 3}
      propertyPath: m_LocalEulerAnglesHint.z
      value: 0
      objectReference: {fileID: 0}
    - target: {fileID: 22488902, guid: 8a005a9e0713f4cc1b5ad29fb07657d3, type: 3}
      propertyPath: m_AnchoredPosition.x
      value: 0
      objectReference: {fileID: 0}
    - target: {fileID: 22488902, guid: 8a005a9e0713f4cc1b5ad29fb07657d3, type: 3}
      propertyPath: m_AnchoredPosition.y
      value: 0
      objectReference: {fileID: 0}
    - target: {fileID: 22488902, guid: 8a005a9e0713f4cc1b5ad29fb07657d3, type: 3}
      propertyPath: m_SizeDelta.x
      value: 0
      objectReference: {fileID: 0}
    - target: {fileID: 22488902, guid: 8a005a9e0713f4cc1b5ad29fb07657d3, type: 3}
      propertyPath: m_SizeDelta.y
      value: 0
      objectReference: {fileID: 0}
    - target: {fileID: 22488902, guid: 8a005a9e0713f4cc1b5ad29fb07657d3, type: 3}
      propertyPath: m_AnchorMin.x
      value: 0
      objectReference: {fileID: 0}
    - target: {fileID: 22488902, guid: 8a005a9e0713f4cc1b5ad29fb07657d3, type: 3}
      propertyPath: m_AnchorMin.y
      value: 0
      objectReference: {fileID: 0}
    - target: {fileID: 22488902, guid: 8a005a9e0713f4cc1b5ad29fb07657d3, type: 3}
      propertyPath: m_AnchorMax.x
      value: 0
      objectReference: {fileID: 0}
    - target: {fileID: 22488902, guid: 8a005a9e0713f4cc1b5ad29fb07657d3, type: 3}
      propertyPath: m_AnchorMax.y
      value: 0
      objectReference: {fileID: 0}
    - target: {fileID: 22488902, guid: 8a005a9e0713f4cc1b5ad29fb07657d3, type: 3}
      propertyPath: m_Pivot.x
      value: 0
      objectReference: {fileID: 0}
    - target: {fileID: 22488902, guid: 8a005a9e0713f4cc1b5ad29fb07657d3, type: 3}
      propertyPath: m_Pivot.y
      value: 0
      objectReference: {fileID: 0}
    - target: {fileID: 11488894, guid: 8a005a9e0713f4cc1b5ad29fb07657d3, type: 3}
      propertyPath: characterImage
      value: 
      objectReference: {fileID: 829140178}
    - target: {fileID: 11404316, guid: 8a005a9e0713f4cc1b5ad29fb07657d3, type: 3}
      propertyPath: beepSounds.Array.size
      value: 0
      objectReference: {fileID: 0}
    - target: {fileID: 11404316, guid: 8a005a9e0713f4cc1b5ad29fb07657d3, type: 3}
      propertyPath: beepSounds.Array.data[0]
      value: 
      objectReference: {fileID: 8300000, guid: c53b7c20372e444c6bd7f2ac0729bbe2, type: 3}
    - target: {fileID: 11404316, guid: 8a005a9e0713f4cc1b5ad29fb07657d3, type: 3}
      propertyPath: beepSounds.Array.data[1]
      value: 
      objectReference: {fileID: 8300000, guid: c53b7c20372e444c6bd7f2ac0729bbe2, type: 3}
    m_RemovedComponents: []
  m_SourcePrefab: {fileID: 100100000, guid: 8a005a9e0713f4cc1b5ad29fb07657d3, type: 3}
--- !u!114 &829140178 stripped
MonoBehaviour:
  m_CorrespondingSourceObject: {fileID: 11448914, guid: 8a005a9e0713f4cc1b5ad29fb07657d3,
    type: 3}
  m_PrefabInstance: {fileID: 829140177}
  m_PrefabAsset: {fileID: 0}
  m_GameObject: {fileID: 0}
  m_Enabled: 1
  m_EditorHideFlags: 0
  m_Script: {fileID: -765806418, guid: f5f67c52d1564df4a8936ccd202a3bd8, type: 3}
  m_Name: 
  m_EditorClassIdentifier: 
--- !u!1001 &899219466
PrefabInstance:
  m_ObjectHideFlags: 0
  serializedVersion: 2
  m_Modification:
    m_TransformParent: {fileID: 0}
    m_Modifications:
    - target: {fileID: 110274, guid: c6289d5f8fa843145a2355af9cb09719, type: 3}
      propertyPath: m_Name
      value: Stage
      objectReference: {fileID: 0}
    - target: {fileID: 410270, guid: c6289d5f8fa843145a2355af9cb09719, type: 3}
      propertyPath: m_LocalPosition.x
      value: 0
      objectReference: {fileID: 0}
    - target: {fileID: 410270, guid: c6289d5f8fa843145a2355af9cb09719, type: 3}
      propertyPath: m_LocalPosition.y
      value: 0
      objectReference: {fileID: 0}
    - target: {fileID: 410270, guid: c6289d5f8fa843145a2355af9cb09719, type: 3}
      propertyPath: m_LocalPosition.z
      value: 0
      objectReference: {fileID: 0}
    - target: {fileID: 410270, guid: c6289d5f8fa843145a2355af9cb09719, type: 3}
      propertyPath: m_LocalRotation.x
      value: 0
      objectReference: {fileID: 0}
    - target: {fileID: 410270, guid: c6289d5f8fa843145a2355af9cb09719, type: 3}
      propertyPath: m_LocalRotation.y
      value: 0
      objectReference: {fileID: 0}
    - target: {fileID: 410270, guid: c6289d5f8fa843145a2355af9cb09719, type: 3}
      propertyPath: m_LocalRotation.z
      value: 0
      objectReference: {fileID: 0}
    - target: {fileID: 410270, guid: c6289d5f8fa843145a2355af9cb09719, type: 3}
      propertyPath: m_LocalRotation.w
      value: 1
      objectReference: {fileID: 0}
    - target: {fileID: 410270, guid: c6289d5f8fa843145a2355af9cb09719, type: 3}
      propertyPath: m_RootOrder
      value: 4
      objectReference: {fileID: 0}
    - target: {fileID: 410270, guid: c6289d5f8fa843145a2355af9cb09719, type: 3}
      propertyPath: m_LocalEulerAnglesHint.x
      value: 0
      objectReference: {fileID: 0}
    - target: {fileID: 410270, guid: c6289d5f8fa843145a2355af9cb09719, type: 3}
      propertyPath: m_LocalEulerAnglesHint.y
      value: 0
      objectReference: {fileID: 0}
    - target: {fileID: 410270, guid: c6289d5f8fa843145a2355af9cb09719, type: 3}
      propertyPath: m_LocalEulerAnglesHint.z
      value: 0
      objectReference: {fileID: 0}
    - target: {fileID: 22410280, guid: c6289d5f8fa843145a2355af9cb09719, type: 3}
      propertyPath: m_AnchoredPosition.y
      value: -1198.9
      objectReference: {fileID: 0}
    - target: {fileID: 22410280, guid: c6289d5f8fa843145a2355af9cb09719, type: 3}
      propertyPath: m_SizeDelta.y
      value: 1198.9
      objectReference: {fileID: 0}
    - target: {fileID: 22410276, guid: c6289d5f8fa843145a2355af9cb09719, type: 3}
      propertyPath: m_AnchoredPosition.y
      value: -1198.9
      objectReference: {fileID: 0}
    - target: {fileID: 22410276, guid: c6289d5f8fa843145a2355af9cb09719, type: 3}
      propertyPath: m_SizeDelta.y
      value: 1198.9
      objectReference: {fileID: 0}
    - target: {fileID: 22410270, guid: c6289d5f8fa843145a2355af9cb09719, type: 3}
      propertyPath: m_AnchoredPosition.y
      value: -1198.9
      objectReference: {fileID: 0}
    - target: {fileID: 22410270, guid: c6289d5f8fa843145a2355af9cb09719, type: 3}
      propertyPath: m_SizeDelta.y
      value: 1198.9
      objectReference: {fileID: 0}
    - target: {fileID: 22410272, guid: c6289d5f8fa843145a2355af9cb09719, type: 3}
      propertyPath: m_AnchoredPosition.y
      value: -1198.9
      objectReference: {fileID: 0}
    - target: {fileID: 22410272, guid: c6289d5f8fa843145a2355af9cb09719, type: 3}
      propertyPath: m_SizeDelta.y
      value: 1198.9
      objectReference: {fileID: 0}
    - target: {fileID: 22410278, guid: c6289d5f8fa843145a2355af9cb09719, type: 3}
      propertyPath: m_AnchoredPosition.y
      value: -1198.9
      objectReference: {fileID: 0}
    - target: {fileID: 22410278, guid: c6289d5f8fa843145a2355af9cb09719, type: 3}
      propertyPath: m_SizeDelta.y
      value: 1198.9
      objectReference: {fileID: 0}
    m_RemovedComponents: []
  m_SourcePrefab: {fileID: 100100000, guid: c6289d5f8fa843145a2355af9cb09719, type: 3}
--- !u!1 &1028311324
GameObject:
  m_ObjectHideFlags: 0
  m_CorrespondingSourceObject: {fileID: 0}
  m_PrefabInstance: {fileID: 0}
  m_PrefabAsset: {fileID: 0}
  serializedVersion: 6
  m_Component:
  - component: {fileID: 1028311327}
  - component: {fileID: 1028311326}
  - component: {fileID: 1028311325}
  m_Layer: 0
  m_Name: Main Camera
  m_TagString: MainCamera
  m_Icon: {fileID: 0}
  m_NavMeshLayer: 0
  m_StaticEditorFlags: 0
  m_IsActive: 1
--- !u!81 &1028311325
AudioListener:
  m_ObjectHideFlags: 0
  m_CorrespondingSourceObject: {fileID: 0}
  m_PrefabInstance: {fileID: 0}
  m_PrefabAsset: {fileID: 0}
  m_GameObject: {fileID: 1028311324}
  m_Enabled: 1
--- !u!20 &1028311326
Camera:
  m_ObjectHideFlags: 0
  m_CorrespondingSourceObject: {fileID: 0}
  m_PrefabInstance: {fileID: 0}
  m_PrefabAsset: {fileID: 0}
  m_GameObject: {fileID: 1028311324}
  m_Enabled: 1
  serializedVersion: 2
  m_ClearFlags: 1
  m_BackGroundColor: {r: 0.19215687, g: 0.3019608, b: 0.4745098, a: 0}
  m_projectionMatrixMode: 1
  m_SensorSize: {x: 36, y: 24}
  m_LensShift: {x: 0, y: 0}
  m_GateFitMode: 2
  m_FocalLength: 50
  m_NormalizedViewPortRect:
    serializedVersion: 2
    x: 0
    y: 0
    width: 1
    height: 1
  near clip plane: 0.3
  far clip plane: 1000
  field of view: 60
  orthographic: 0
  orthographic size: 5
  m_Depth: -1
  m_CullingMask:
    serializedVersion: 2
    m_Bits: 4294967295
  m_RenderingPath: -1
  m_TargetTexture: {fileID: 0}
  m_TargetDisplay: 0
  m_TargetEye: 3
  m_HDR: 1
  m_AllowMSAA: 1
  m_AllowDynamicResolution: 0
  m_ForceIntoRT: 0
  m_OcclusionCulling: 1
  m_StereoConvergence: 10
  m_StereoSeparation: 0.022
--- !u!4 &1028311327
Transform:
  m_ObjectHideFlags: 0
  m_CorrespondingSourceObject: {fileID: 0}
  m_PrefabInstance: {fileID: 0}
  m_PrefabAsset: {fileID: 0}
  m_GameObject: {fileID: 1028311324}
  m_LocalRotation: {x: 0, y: 0, z: 0, w: 1}
  m_LocalPosition: {x: 0, y: 1, z: -10}
  m_LocalScale: {x: 1, y: 1, z: 1}
  m_Children: []
  m_Father: {fileID: 0}
  m_RootOrder: 0
  m_LocalEulerAnglesHint: {x: 0, y: 0, z: 0}
--- !u!1001 &1918050800
PrefabInstance:
  m_ObjectHideFlags: 0
  serializedVersion: 2
  m_Modification:
    m_TransformParent: {fileID: 0}
    m_Modifications:
    - target: {fileID: 100000, guid: b20518d45890e4be59ba82946f88026c, type: 3}
      propertyPath: m_Name
      value: Duyen
      objectReference: {fileID: 0}
    - target: {fileID: 400000, guid: b20518d45890e4be59ba82946f88026c, type: 3}
      propertyPath: m_LocalPosition.x
      value: 0
      objectReference: {fileID: 0}
    - target: {fileID: 400000, guid: b20518d45890e4be59ba82946f88026c, type: 3}
      propertyPath: m_LocalPosition.y
      value: 0
      objectReference: {fileID: 0}
    - target: {fileID: 400000, guid: b20518d45890e4be59ba82946f88026c, type: 3}
      propertyPath: m_LocalPosition.z
      value: 0
      objectReference: {fileID: 0}
    - target: {fileID: 400000, guid: b20518d45890e4be59ba82946f88026c, type: 3}
      propertyPath: m_LocalRotation.x
      value: 0
      objectReference: {fileID: 0}
    - target: {fileID: 400000, guid: b20518d45890e4be59ba82946f88026c, type: 3}
      propertyPath: m_LocalRotation.y
      value: 0
      objectReference: {fileID: 0}
    - target: {fileID: 400000, guid: b20518d45890e4be59ba82946f88026c, type: 3}
      propertyPath: m_LocalRotation.z
      value: 0
      objectReference: {fileID: 0}
    - target: {fileID: 400000, guid: b20518d45890e4be59ba82946f88026c, type: 3}
      propertyPath: m_LocalRotation.w
      value: 1
      objectReference: {fileID: 0}
    - target: {fileID: 400000, guid: b20518d45890e4be59ba82946f88026c, type: 3}
      propertyPath: m_RootOrder
      value: 2
      objectReference: {fileID: 0}
    - target: {fileID: 400000, guid: b20518d45890e4be59ba82946f88026c, type: 3}
      propertyPath: m_LocalEulerAnglesHint.x
      value: 0
      objectReference: {fileID: 0}
    - target: {fileID: 400000, guid: b20518d45890e4be59ba82946f88026c, type: 3}
      propertyPath: m_LocalEulerAnglesHint.y
      value: 0
      objectReference: {fileID: 0}
    - target: {fileID: 400000, guid: b20518d45890e4be59ba82946f88026c, type: 3}
      propertyPath: m_LocalEulerAnglesHint.z
      value: 0
      objectReference: {fileID: 0}
    - target: {fileID: 11400000, guid: b20518d45890e4be59ba82946f88026c, type: 3}
      propertyPath: portraits.Array.size
      value: 1
      objectReference: {fileID: 0}
    - target: {fileID: 11400000, guid: b20518d45890e4be59ba82946f88026c, type: 3}
      propertyPath: nameColor.r
      value: 0.3780121
      objectReference: {fileID: 0}
    - target: {fileID: 11400000, guid: b20518d45890e4be59ba82946f88026c, type: 3}
      propertyPath: nameColor.g
      value: 0.9056604
      objectReference: {fileID: 0}
    - target: {fileID: 11400000, guid: b20518d45890e4be59ba82946f88026c, type: 3}
      propertyPath: nameColor.b
      value: 0.33748665
      objectReference: {fileID: 0}
    - target: {fileID: 11400000, guid: b20518d45890e4be59ba82946f88026c, type: 3}
      propertyPath: nameText
      value: Duyen
      objectReference: {fileID: 0}
    m_RemovedComponents: []
  m_SourcePrefab: {fileID: 100100000, guid: b20518d45890e4be59ba82946f88026c, type: 3}
--- !u!114 &1918050801 stripped
MonoBehaviour:
  m_CorrespondingSourceObject: {fileID: 11400000, guid: b20518d45890e4be59ba82946f88026c,
    type: 3}
  m_PrefabInstance: {fileID: 1918050800}
  m_PrefabAsset: {fileID: 0}
  m_GameObject: {fileID: 0}
  m_Enabled: 1
  m_EditorHideFlags: 0
  m_Script: {fileID: 11500000, guid: 25fb867d2049d41f597aefdd6b19f598, type: 3}
  m_Name: 
  m_EditorClassIdentifier: 
--- !u!1 &2121844553
GameObject:
  m_ObjectHideFlags: 1
  m_CorrespondingSourceObject: {fileID: 0}
  m_PrefabInstance: {fileID: 0}
  m_PrefabAsset: {fileID: 0}
  serializedVersion: 6
  m_Component:
  - component: {fileID: 2121844555}
  - component: {fileID: 2121844554}
  m_Layer: 0
  m_Name: _FungusState
  m_TagString: Untagged
  m_Icon: {fileID: 0}
  m_NavMeshLayer: 0
  m_StaticEditorFlags: 0
  m_IsActive: 1
--- !u!114 &2121844554
MonoBehaviour:
  m_ObjectHideFlags: 1
  m_CorrespondingSourceObject: {fileID: 0}
  m_PrefabInstance: {fileID: 0}
  m_PrefabAsset: {fileID: 0}
  m_GameObject: {fileID: 2121844553}
  m_Enabled: 1
  m_EditorHideFlags: 0
  m_Script: {fileID: 11500000, guid: 61dddfdc5e0e44ca298d8f46f7f5a915, type: 3}
  m_Name: 
  m_EditorClassIdentifier: 
  selectedFlowchart: {fileID: 398864276}
--- !u!4 &2121844555
Transform:
  m_ObjectHideFlags: 1
  m_CorrespondingSourceObject: {fileID: 0}
  m_PrefabInstance: {fileID: 0}
  m_PrefabAsset: {fileID: 0}
  m_GameObject: {fileID: 2121844553}
  m_LocalRotation: {x: 0, y: 0, z: 0, w: 1}
  m_LocalPosition: {x: 0, y: 0, z: 0}
  m_LocalScale: {x: 1, y: 1, z: 1}
  m_Children: []
  m_Father: {fileID: 0}
  m_RootOrder: 7
  m_LocalEulerAnglesHint: {x: 0, y: 0, z: 0}
